{
  "contractName": "ERC1155TokenReceiver",
  "abi": [
    {
      "constant": false,
      "inputs": [
        {
          "internalType": "address",
          "name": "_operator",
          "type": "address"
        },
        {
          "internalType": "address",
          "name": "_from",
          "type": "address"
        },
        {
          "internalType": "uint256",
          "name": "_id",
          "type": "uint256"
        },
        {
          "internalType": "uint256",
          "name": "_value",
          "type": "uint256"
        },
        {
          "internalType": "bytes",
          "name": "_data",
          "type": "bytes"
        }
      ],
      "name": "onERC1155Received",
      "outputs": [
        {
          "internalType": "bytes4",
          "name": "",
          "type": "bytes4"
        }
      ],
      "payable": false,
      "stateMutability": "nonpayable",
      "type": "function"
    },
    {
      "constant": false,
      "inputs": [
        {
          "internalType": "address",
          "name": "_operator",
          "type": "address"
        },
        {
          "internalType": "address",
          "name": "_from",
          "type": "address"
        },
        {
          "internalType": "uint256[]",
          "name": "_ids",
          "type": "uint256[]"
        },
        {
          "internalType": "uint256[]",
          "name": "_values",
          "type": "uint256[]"
        },
        {
          "internalType": "bytes",
          "name": "_data",
          "type": "bytes"
        }
      ],
      "name": "onERC1155BatchReceived",
      "outputs": [
        {
          "internalType": "bytes4",
          "name": "",
          "type": "bytes4"
        }
      ],
      "payable": false,
      "stateMutability": "nonpayable",
      "type": "function"
    }
  ],
  "metadata": "{\"compiler\":{\"version\":\"0.5.11+commit.c082d0b4\"},\"language\":\"Solidity\",\"output\":{\"abi\":[{\"constant\":false,\"inputs\":[{\"internalType\":\"address\",\"name\":\"_operator\",\"type\":\"address\"},{\"internalType\":\"address\",\"name\":\"_from\",\"type\":\"address\"},{\"internalType\":\"uint256[]\",\"name\":\"_ids\",\"type\":\"uint256[]\"},{\"internalType\":\"uint256[]\",\"name\":\"_values\",\"type\":\"uint256[]\"},{\"internalType\":\"bytes\",\"name\":\"_data\",\"type\":\"bytes\"}],\"name\":\"onERC1155BatchReceived\",\"outputs\":[{\"internalType\":\"bytes4\",\"name\":\"\",\"type\":\"bytes4\"}],\"payable\":false,\"stateMutability\":\"nonpayable\",\"type\":\"function\"},{\"constant\":false,\"inputs\":[{\"internalType\":\"address\",\"name\":\"_operator\",\"type\":\"address\"},{\"internalType\":\"address\",\"name\":\"_from\",\"type\":\"address\"},{\"internalType\":\"uint256\",\"name\":\"_id\",\"type\":\"uint256\"},{\"internalType\":\"uint256\",\"name\":\"_value\",\"type\":\"uint256\"},{\"internalType\":\"bytes\",\"name\":\"_data\",\"type\":\"bytes\"}],\"name\":\"onERC1155Received\",\"outputs\":[{\"internalType\":\"bytes4\",\"name\":\"\",\"type\":\"bytes4\"}],\"payable\":false,\"stateMutability\":\"nonpayable\",\"type\":\"function\"}],\"devdoc\":{\"methods\":{\"onERC1155BatchReceived(address,address,uint256[],uint256[],bytes)\":{\"details\":\"An ERC1155-compliant smart contract MUST call this function on the token recipient contract, at the end of a `safeBatchTransferFrom` after the balances have been updated. This function MUST return `bytes4(keccak256(\\\"onERC1155BatchReceived(address,address,uint256[],uint256[],bytes)\\\"))` (i.e. 0xbc197c81) if it accepts the transfer(s). This function MUST revert if it rejects the transfer(s). Return of any other value than the prescribed keccak256 generated value MUST result in the transaction being reverted by the caller.\",\"params\":{\"_data\":\"Additional data with no specified format\",\"_from\":\"The address which previously owned the token\",\"_ids\":\"An array containing ids of each token being transferred (order and length must match _values array)\",\"_operator\":\"The address which initiated the batch transfer (i.e. msg.sender)\",\"_values\":\"An array containing amounts of each token being transferred (order and length must match _ids array)\"},\"return\":\"`bytes4(keccak256(\\\"onERC1155BatchReceived(address,address,uint256[],uint256[],bytes)\\\"))`\"},\"onERC1155Received(address,address,uint256,uint256,bytes)\":{\"details\":\"An ERC1155-compliant smart contract MUST call this function on the token recipient contract, at the end of a `safeTransferFrom` after the balance has been updated. This function MUST return `bytes4(keccak256(\\\"onERC1155Received(address,address,uint256,uint256,bytes)\\\"))` (i.e. 0xf23a6e61) if it accepts the transfer. This function MUST revert if it rejects the transfer. Return of any other value than the prescribed keccak256 generated value MUST result in the transaction being reverted by the caller.\",\"params\":{\"_data\":\"Additional data with no specified format\",\"_from\":\"The address which previously owned the token\",\"_id\":\"The ID of the token being transferred\",\"_operator\":\"The address which initiated the transfer (i.e. msg.sender)\",\"_value\":\"The amount of tokens being transferred\"},\"return\":\"`bytes4(keccak256(\\\"onERC1155Received(address,address,uint256,uint256,bytes)\\\"))`\"}}},\"userdoc\":{\"methods\":{\"onERC1155BatchReceived(address,address,uint256[],uint256[],bytes)\":{\"notice\":\"Handle the receipt of multiple ERC1155 token types.\"},\"onERC1155Received(address,address,uint256,uint256,bytes)\":{\"notice\":\"Handle the receipt of a single ERC1155 token type.\"}},\"notice\":\"Note: The ERC-165 identifier for this interface is 0x4e2312e0.\"}},\"settings\":{\"compilationTarget\":{\"/mnt/c/Kiko/MyProjects/Blockchain/Decentraland/decentracraft-contracts/contracts/IERC1155TokenReceiver.sol\":\"ERC1155TokenReceiver\"},\"evmVersion\":\"petersburg\",\"libraries\":{},\"optimizer\":{\"enabled\":false,\"runs\":200},\"remappings\":[]},\"sources\":{\"/mnt/c/Kiko/MyProjects/Blockchain/Decentraland/decentracraft-contracts/contracts/IERC1155TokenReceiver.sol\":{\"keccak256\":\"0xa515e82782228de86516689cf89759e69cb433c07e2fc6ac3a62af76b9c01143\",\"urls\":[\"bzz-raw://85eaf9990da37cdabf3a6b09fa66e396b79b05f03a71a9d2c73a36792ee421f7\",\"dweb:/ipfs/QmadRHT12FdJg8HHEhUxRK8xFaW3CDrCirVtMh8VB63qhd\"]}},\"version\":1}",
  "bytecode": "0x",
  "deployedBytecode": "0x",
  "sourceMap": "",
  "deployedSourceMap": "",
  "source": "pragma solidity ^0.5.11;\n\n/**\n    Note: The ERC-165 identifier for this interface is 0x4e2312e0.\n*/\ninterface ERC1155TokenReceiver {\n    /**\n        @notice Handle the receipt of a single ERC1155 token type.\n        @dev An ERC1155-compliant smart contract MUST call this function on the token recipient contract, at the end of a `safeTransferFrom` after the balance has been updated.\n        This function MUST return `bytes4(keccak256(\"onERC1155Received(address,address,uint256,uint256,bytes)\"))` (i.e. 0xf23a6e61) if it accepts the transfer.\n        This function MUST revert if it rejects the transfer.\n        Return of any other value than the prescribed keccak256 generated value MUST result in the transaction being reverted by the caller.\n        @param _operator  The address which initiated the transfer (i.e. msg.sender)\n        @param _from      The address which previously owned the token\n        @param _id        The ID of the token being transferred\n        @param _value     The amount of tokens being transferred\n        @param _data      Additional data with no specified format\n        @return           `bytes4(keccak256(\"onERC1155Received(address,address,uint256,uint256,bytes)\"))`\n    */\n    function onERC1155Received(address _operator, address _from, uint256 _id, uint256 _value, bytes calldata _data) external returns(bytes4);\n\n    /**\n        @notice Handle the receipt of multiple ERC1155 token types.\n        @dev An ERC1155-compliant smart contract MUST call this function on the token recipient contract, at the end of a `safeBatchTransferFrom` after the balances have been updated.\n        This function MUST return `bytes4(keccak256(\"onERC1155BatchReceived(address,address,uint256[],uint256[],bytes)\"))` (i.e. 0xbc197c81) if it accepts the transfer(s).\n        This function MUST revert if it rejects the transfer(s).\n        Return of any other value than the prescribed keccak256 generated value MUST result in the transaction being reverted by the caller.\n        @param _operator  The address which initiated the batch transfer (i.e. msg.sender)\n        @param _from      The address which previously owned the token\n        @param _ids       An array containing ids of each token being transferred (order and length must match _values array)\n        @param _values    An array containing amounts of each token being transferred (order and length must match _ids array)\n        @param _data      Additional data with no specified format\n        @return           `bytes4(keccak256(\"onERC1155BatchReceived(address,address,uint256[],uint256[],bytes)\"))`\n    */\n    function onERC1155BatchReceived(address _operator, address _from, uint256[] calldata _ids, uint256[] calldata _values, bytes calldata _data) external returns(bytes4);\n}\n",
  "sourcePath": "/mnt/c/Kiko/MyProjects/Blockchain/Decentraland/decentracraft-contracts/contracts/IERC1155TokenReceiver.sol",
  "ast": {
    "absolutePath": "/mnt/c/Kiko/MyProjects/Blockchain/Decentraland/decentracraft-contracts/contracts/IERC1155TokenReceiver.sol",
    "exportedSymbols": {
      "ERC1155TokenReceiver": [
        2868
      ]
    },
    "id": 2869,
    "nodeType": "SourceUnit",
    "nodes": [
      {
        "id": 2835,
        "literals": [
          "solidity",
          "^",
          "0.5",
          ".11"
        ],
        "nodeType": "PragmaDirective",
        "src": "0:24:14"
      },
      {
        "baseContracts": [],
        "contractDependencies": [],
        "contractKind": "interface",
        "documentation": "Note: The ERC-165 identifier for this interface is 0x4e2312e0.",
        "fullyImplemented": false,
        "id": 2868,
        "linearizedBaseContracts": [
          2868
        ],
        "name": "ERC1155TokenReceiver",
        "nodeType": "ContractDefinition",
        "nodes": [
          {
            "body": null,
            "documentation": "@notice Handle the receipt of a single ERC1155 token type.\n@dev An ERC1155-compliant smart contract MUST call this function on the token recipient contract, at the end of a `safeTransferFrom` after the balance has been updated.\nThis function MUST return `bytes4(keccak256(\"onERC1155Received(address,address,uint256,uint256,bytes)\"))` (i.e. 0xf23a6e61) if it accepts the transfer.\nThis function MUST revert if it rejects the transfer.\nReturn of any other value than the prescribed keccak256 generated value MUST result in the transaction being reverted by the caller.\n@param _operator  The address which initiated the transfer (i.e. msg.sender)\n@param _from      The address which previously owned the token\n@param _id        The ID of the token being transferred\n@param _value     The amount of tokens being transferred\n@param _data      Additional data with no specified format\n@return           `bytes4(keccak256(\"onERC1155Received(address,address,uint256,uint256,bytes)\"))`",
            "id": 2850,
            "implemented": false,
            "kind": "function",
            "modifiers": [],
            "name": "onERC1155Received",
            "nodeType": "FunctionDefinition",
            "parameters": {
              "id": 2846,
              "nodeType": "ParameterList",
              "parameters": [
                {
                  "constant": false,
                  "id": 2837,
                  "name": "_operator",
                  "nodeType": "VariableDeclaration",
                  "scope": 2850,
                  "src": "1244:17:14",
                  "stateVariable": false,
                  "storageLocation": "default",
                  "typeDescriptions": {
                    "typeIdentifier": "t_address",
                    "typeString": "address"
                  },
                  "typeName": {
                    "id": 2836,
                    "name": "address",
                    "nodeType": "ElementaryTypeName",
                    "src": "1244:7:14",
                    "stateMutability": "nonpayable",
                    "typeDescriptions": {
                      "typeIdentifier": "t_address",
                      "typeString": "address"
                    }
                  },
                  "value": null,
                  "visibility": "internal"
                },
                {
                  "constant": false,
                  "id": 2839,
                  "name": "_from",
                  "nodeType": "VariableDeclaration",
                  "scope": 2850,
                  "src": "1263:13:14",
                  "stateVariable": false,
                  "storageLocation": "default",
                  "typeDescriptions": {
                    "typeIdentifier": "t_address",
                    "typeString": "address"
                  },
                  "typeName": {
                    "id": 2838,
                    "name": "address",
                    "nodeType": "ElementaryTypeName",
                    "src": "1263:7:14",
                    "stateMutability": "nonpayable",
                    "typeDescriptions": {
                      "typeIdentifier": "t_address",
                      "typeString": "address"
                    }
                  },
                  "value": null,
                  "visibility": "internal"
                },
                {
                  "constant": false,
                  "id": 2841,
                  "name": "_id",
                  "nodeType": "VariableDeclaration",
                  "scope": 2850,
                  "src": "1278:11:14",
                  "stateVariable": false,
                  "storageLocation": "default",
                  "typeDescriptions": {
                    "typeIdentifier": "t_uint256",
                    "typeString": "uint256"
                  },
                  "typeName": {
                    "id": 2840,
                    "name": "uint256",
                    "nodeType": "ElementaryTypeName",
                    "src": "1278:7:14",
                    "typeDescriptions": {
                      "typeIdentifier": "t_uint256",
                      "typeString": "uint256"
                    }
                  },
                  "value": null,
                  "visibility": "internal"
                },
                {
                  "constant": false,
                  "id": 2843,
                  "name": "_value",
                  "nodeType": "VariableDeclaration",
                  "scope": 2850,
                  "src": "1291:14:14",
                  "stateVariable": false,
                  "storageLocation": "default",
                  "typeDescriptions": {
                    "typeIdentifier": "t_uint256",
                    "typeString": "uint256"
                  },
                  "typeName": {
                    "id": 2842,
                    "name": "uint256",
                    "nodeType": "ElementaryTypeName",
                    "src": "1291:7:14",
                    "typeDescriptions": {
                      "typeIdentifier": "t_uint256",
                      "typeString": "uint256"
                    }
                  },
                  "value": null,
                  "visibility": "internal"
                },
                {
                  "constant": false,
                  "id": 2845,
                  "name": "_data",
                  "nodeType": "VariableDeclaration",
                  "scope": 2850,
                  "src": "1307:20:14",
                  "stateVariable": false,
                  "storageLocation": "calldata",
                  "typeDescriptions": {
                    "typeIdentifier": "t_bytes_calldata_ptr",
                    "typeString": "bytes"
                  },
                  "typeName": {
                    "id": 2844,
                    "name": "bytes",
                    "nodeType": "ElementaryTypeName",
                    "src": "1307:5:14",
                    "typeDescriptions": {
                      "typeIdentifier": "t_bytes_storage_ptr",
                      "typeString": "bytes"
                    }
                  },
                  "value": null,
                  "visibility": "internal"
                }
              ],
              "src": "1243:85:14"
            },
            "returnParameters": {
              "id": 2849,
              "nodeType": "ParameterList",
              "parameters": [
                {
                  "constant": false,
                  "id": 2848,
                  "name": "",
                  "nodeType": "VariableDeclaration",
                  "scope": 2850,
                  "src": "1346:6:14",
                  "stateVariable": false,
                  "storageLocation": "default",
                  "typeDescriptions": {
                    "typeIdentifier": "t_bytes4",
                    "typeString": "bytes4"
                  },
                  "typeName": {
                    "id": 2847,
                    "name": "bytes4",
                    "nodeType": "ElementaryTypeName",
                    "src": "1346:6:14",
                    "typeDescriptions": {
                      "typeIdentifier": "t_bytes4",
                      "typeString": "bytes4"
                    }
                  },
                  "value": null,
                  "visibility": "internal"
                }
              ],
              "src": "1345:8:14"
            },
            "scope": 2868,
            "src": "1217:137:14",
            "stateMutability": "nonpayable",
            "superFunction": null,
            "visibility": "external"
          },
          {
            "body": null,
            "documentation": "@notice Handle the receipt of multiple ERC1155 token types.\n@dev An ERC1155-compliant smart contract MUST call this function on the token recipient contract, at the end of a `safeBatchTransferFrom` after the balances have been updated.\nThis function MUST return `bytes4(keccak256(\"onERC1155BatchReceived(address,address,uint256[],uint256[],bytes)\"))` (i.e. 0xbc197c81) if it accepts the transfer(s).\nThis function MUST revert if it rejects the transfer(s).\nReturn of any other value than the prescribed keccak256 generated value MUST result in the transaction being reverted by the caller.\n@param _operator  The address which initiated the batch transfer (i.e. msg.sender)\n@param _from      The address which previously owned the token\n@param _ids       An array containing ids of each token being transferred (order and length must match _values array)\n@param _values    An array containing amounts of each token being transferred (order and length must match _ids array)\n@param _data      Additional data with no specified format\n@return           `bytes4(keccak256(\"onERC1155BatchReceived(address,address,uint256[],uint256[],bytes)\"))`",
            "id": 2867,
            "implemented": false,
            "kind": "function",
            "modifiers": [],
            "name": "onERC1155BatchReceived",
            "nodeType": "FunctionDefinition",
            "parameters": {
              "id": 2863,
              "nodeType": "ParameterList",
              "parameters": [
                {
                  "constant": false,
                  "id": 2852,
                  "name": "_operator",
                  "nodeType": "VariableDeclaration",
                  "scope": 2867,
                  "src": "2634:17:14",
                  "stateVariable": false,
                  "storageLocation": "default",
                  "typeDescriptions": {
                    "typeIdentifier": "t_address",
                    "typeString": "address"
                  },
                  "typeName": {
                    "id": 2851,
                    "name": "address",
                    "nodeType": "ElementaryTypeName",
                    "src": "2634:7:14",
                    "stateMutability": "nonpayable",
                    "typeDescriptions": {
                      "typeIdentifier": "t_address",
                      "typeString": "address"
                    }
                  },
                  "value": null,
                  "visibility": "internal"
                },
                {
                  "constant": false,
                  "id": 2854,
                  "name": "_from",
                  "nodeType": "VariableDeclaration",
                  "scope": 2867,
                  "src": "2653:13:14",
                  "stateVariable": false,
                  "storageLocation": "default",
                  "typeDescriptions": {
                    "typeIdentifier": "t_address",
                    "typeString": "address"
                  },
                  "typeName": {
                    "id": 2853,
                    "name": "address",
                    "nodeType": "ElementaryTypeName",
                    "src": "2653:7:14",
                    "stateMutability": "nonpayable",
                    "typeDescriptions": {
                      "typeIdentifier": "t_address",
                      "typeString": "address"
                    }
                  },
                  "value": null,
                  "visibility": "internal"
                },
                {
                  "constant": false,
                  "id": 2857,
                  "name": "_ids",
                  "nodeType": "VariableDeclaration",
                  "scope": 2867,
                  "src": "2668:23:14",
                  "stateVariable": false,
                  "storageLocation": "calldata",
                  "typeDescriptions": {
                    "typeIdentifier": "t_array$_t_uint256_$dyn_calldata_ptr",
                    "typeString": "uint256[]"
                  },
                  "typeName": {
                    "baseType": {
                      "id": 2855,
                      "name": "uint256",
                      "nodeType": "ElementaryTypeName",
                      "src": "2668:7:14",
                      "typeDescriptions": {
                        "typeIdentifier": "t_uint256",
                        "typeString": "uint256"
                      }
                    },
                    "id": 2856,
                    "length": null,
                    "nodeType": "ArrayTypeName",
                    "src": "2668:9:14",
                    "typeDescriptions": {
                      "typeIdentifier": "t_array$_t_uint256_$dyn_storage_ptr",
                      "typeString": "uint256[]"
                    }
                  },
                  "value": null,
                  "visibility": "internal"
                },
                {
                  "constant": false,
                  "id": 2860,
                  "name": "_values",
                  "nodeType": "VariableDeclaration",
                  "scope": 2867,
                  "src": "2693:26:14",
                  "stateVariable": false,
                  "storageLocation": "calldata",
                  "typeDescriptions": {
                    "typeIdentifier": "t_array$_t_uint256_$dyn_calldata_ptr",
                    "typeString": "uint256[]"
                  },
                  "typeName": {
                    "baseType": {
                      "id": 2858,
                      "name": "uint256",
                      "nodeType": "ElementaryTypeName",
                      "src": "2693:7:14",
                      "typeDescriptions": {
                        "typeIdentifier": "t_uint256",
                        "typeString": "uint256"
                      }
                    },
                    "id": 2859,
                    "length": null,
                    "nodeType": "ArrayTypeName",
                    "src": "2693:9:14",
                    "typeDescriptions": {
                      "typeIdentifier": "t_array$_t_uint256_$dyn_storage_ptr",
                      "typeString": "uint256[]"
                    }
                  },
                  "value": null,
                  "visibility": "internal"
                },
                {
                  "constant": false,
                  "id": 2862,
                  "name": "_data",
                  "nodeType": "VariableDeclaration",
                  "scope": 2867,
                  "src": "2721:20:14",
                  "stateVariable": false,
                  "storageLocation": "calldata",
                  "typeDescriptions": {
                    "typeIdentifier": "t_bytes_calldata_ptr",
                    "typeString": "bytes"
                  },
                  "typeName": {
                    "id": 2861,
                    "name": "bytes",
                    "nodeType": "ElementaryTypeName",
                    "src": "2721:5:14",
                    "typeDescriptions": {
                      "typeIdentifier": "t_bytes_storage_ptr",
                      "typeString": "bytes"
                    }
                  },
                  "value": null,
                  "visibility": "internal"
                }
              ],
              "src": "2633:109:14"
            },
            "returnParameters": {
              "id": 2866,
              "nodeType": "ParameterList",
              "parameters": [
                {
                  "constant": false,
                  "id": 2865,
                  "name": "",
                  "nodeType": "VariableDeclaration",
                  "scope": 2867,
                  "src": "2760:6:14",
                  "stateVariable": false,
                  "storageLocation": "default",
                  "typeDescriptions": {
                    "typeIdentifier": "t_bytes4",
                    "typeString": "bytes4"
                  },
                  "typeName": {
                    "id": 2864,
                    "name": "bytes4",
                    "nodeType": "ElementaryTypeName",
                    "src": "2760:6:14",
                    "typeDescriptions": {
                      "typeIdentifier": "t_bytes4",
                      "typeString": "bytes4"
                    }
                  },
                  "value": null,
                  "visibility": "internal"
                }
              ],
              "src": "2759:8:14"
            },
            "scope": 2868,
            "src": "2602:166:14",
            "stateMutability": "nonpayable",
            "superFunction": null,
            "visibility": "external"
          }
        ],
        "scope": 2869,
        "src": "100:2670:14"
      }
    ],
    "src": "0:2771:14"
  },
  "legacyAST": {
    "absolutePath": "/mnt/c/Kiko/MyProjects/Blockchain/Decentraland/decentracraft-contracts/contracts/IERC1155TokenReceiver.sol",
    "exportedSymbols": {
      "ERC1155TokenReceiver": [
        2868
      ]
    },
    "id": 2869,
    "nodeType": "SourceUnit",
    "nodes": [
      {
        "id": 2835,
        "literals": [
          "solidity",
          "^",
          "0.5",
          ".11"
        ],
        "nodeType": "PragmaDirective",
        "src": "0:24:14"
      },
      {
        "baseContracts": [],
        "contractDependencies": [],
        "contractKind": "interface",
        "documentation": "Note: The ERC-165 identifier for this interface is 0x4e2312e0.",
        "fullyImplemented": false,
        "id": 2868,
        "linearizedBaseContracts": [
          2868
        ],
        "name": "ERC1155TokenReceiver",
        "nodeType": "ContractDefinition",
        "nodes": [
          {
            "body": null,
            "documentation": "@notice Handle the receipt of a single ERC1155 token type.\n@dev An ERC1155-compliant smart contract MUST call this function on the token recipient contract, at the end of a `safeTransferFrom` after the balance has been updated.\nThis function MUST return `bytes4(keccak256(\"onERC1155Received(address,address,uint256,uint256,bytes)\"))` (i.e. 0xf23a6e61) if it accepts the transfer.\nThis function MUST revert if it rejects the transfer.\nReturn of any other value than the prescribed keccak256 generated value MUST result in the transaction being reverted by the caller.\n@param _operator  The address which initiated the transfer (i.e. msg.sender)\n@param _from      The address which previously owned the token\n@param _id        The ID of the token being transferred\n@param _value     The amount of tokens being transferred\n@param _data      Additional data with no specified format\n@return           `bytes4(keccak256(\"onERC1155Received(address,address,uint256,uint256,bytes)\"))`",
            "id": 2850,
            "implemented": false,
            "kind": "function",
            "modifiers": [],
            "name": "onERC1155Received",
            "nodeType": "FunctionDefinition",
            "parameters": {
              "id": 2846,
              "nodeType": "ParameterList",
              "parameters": [
                {
                  "constant": false,
                  "id": 2837,
                  "name": "_operator",
                  "nodeType": "VariableDeclaration",
                  "scope": 2850,
                  "src": "1244:17:14",
                  "stateVariable": false,
                  "storageLocation": "default",
                  "typeDescriptions": {
                    "typeIdentifier": "t_address",
                    "typeString": "address"
                  },
                  "typeName": {
                    "id": 2836,
                    "name": "address",
                    "nodeType": "ElementaryTypeName",
                    "src": "1244:7:14",
                    "stateMutability": "nonpayable",
                    "typeDescriptions": {
                      "typeIdentifier": "t_address",
                      "typeString": "address"
                    }
                  },
                  "value": null,
                  "visibility": "internal"
                },
                {
                  "constant": false,
                  "id": 2839,
                  "name": "_from",
                  "nodeType": "VariableDeclaration",
                  "scope": 2850,
                  "src": "1263:13:14",
                  "stateVariable": false,
                  "storageLocation": "default",
                  "typeDescriptions": {
                    "typeIdentifier": "t_address",
                    "typeString": "address"
                  },
                  "typeName": {
                    "id": 2838,
                    "name": "address",
                    "nodeType": "ElementaryTypeName",
                    "src": "1263:7:14",
                    "stateMutability": "nonpayable",
                    "typeDescriptions": {
                      "typeIdentifier": "t_address",
                      "typeString": "address"
                    }
                  },
                  "value": null,
                  "visibility": "internal"
                },
                {
                  "constant": false,
                  "id": 2841,
                  "name": "_id",
                  "nodeType": "VariableDeclaration",
                  "scope": 2850,
                  "src": "1278:11:14",
                  "stateVariable": false,
                  "storageLocation": "default",
                  "typeDescriptions": {
                    "typeIdentifier": "t_uint256",
                    "typeString": "uint256"
                  },
                  "typeName": {
                    "id": 2840,
                    "name": "uint256",
                    "nodeType": "ElementaryTypeName",
                    "src": "1278:7:14",
                    "typeDescriptions": {
                      "typeIdentifier": "t_uint256",
                      "typeString": "uint256"
                    }
                  },
                  "value": null,
                  "visibility": "internal"
                },
                {
                  "constant": false,
                  "id": 2843,
                  "name": "_value",
                  "nodeType": "VariableDeclaration",
                  "scope": 2850,
                  "src": "1291:14:14",
                  "stateVariable": false,
                  "storageLocation": "default",
                  "typeDescriptions": {
                    "typeIdentifier": "t_uint256",
                    "typeString": "uint256"
                  },
                  "typeName": {
                    "id": 2842,
                    "name": "uint256",
                    "nodeType": "ElementaryTypeName",
                    "src": "1291:7:14",
                    "typeDescriptions": {
                      "typeIdentifier": "t_uint256",
                      "typeString": "uint256"
                    }
                  },
                  "value": null,
                  "visibility": "internal"
                },
                {
                  "constant": false,
                  "id": 2845,
                  "name": "_data",
                  "nodeType": "VariableDeclaration",
                  "scope": 2850,
                  "src": "1307:20:14",
                  "stateVariable": false,
                  "storageLocation": "calldata",
                  "typeDescriptions": {
                    "typeIdentifier": "t_bytes_calldata_ptr",
                    "typeString": "bytes"
                  },
                  "typeName": {
                    "id": 2844,
                    "name": "bytes",
                    "nodeType": "ElementaryTypeName",
                    "src": "1307:5:14",
                    "typeDescriptions": {
                      "typeIdentifier": "t_bytes_storage_ptr",
                      "typeString": "bytes"
                    }
                  },
                  "value": null,
                  "visibility": "internal"
                }
              ],
              "src": "1243:85:14"
            },
            "returnParameters": {
              "id": 2849,
              "nodeType": "ParameterList",
              "parameters": [
                {
                  "constant": false,
                  "id": 2848,
                  "name": "",
                  "nodeType": "VariableDeclaration",
                  "scope": 2850,
                  "src": "1346:6:14",
                  "stateVariable": false,
                  "storageLocation": "default",
                  "typeDescriptions": {
                    "typeIdentifier": "t_bytes4",
                    "typeString": "bytes4"
                  },
                  "typeName": {
                    "id": 2847,
                    "name": "bytes4",
                    "nodeType": "ElementaryTypeName",
                    "src": "1346:6:14",
                    "typeDescriptions": {
                      "typeIdentifier": "t_bytes4",
                      "typeString": "bytes4"
                    }
                  },
                  "value": null,
                  "visibility": "internal"
                }
              ],
              "src": "1345:8:14"
            },
            "scope": 2868,
            "src": "1217:137:14",
            "stateMutability": "nonpayable",
            "superFunction": null,
            "visibility": "external"
          },
          {
            "body": null,
            "documentation": "@notice Handle the receipt of multiple ERC1155 token types.\n@dev An ERC1155-compliant smart contract MUST call this function on the token recipient contract, at the end of a `safeBatchTransferFrom` after the balances have been updated.\nThis function MUST return `bytes4(keccak256(\"onERC1155BatchReceived(address,address,uint256[],uint256[],bytes)\"))` (i.e. 0xbc197c81) if it accepts the transfer(s).\nThis function MUST revert if it rejects the transfer(s).\nReturn of any other value than the prescribed keccak256 generated value MUST result in the transaction being reverted by the caller.\n@param _operator  The address which initiated the batch transfer (i.e. msg.sender)\n@param _from      The address which previously owned the token\n@param _ids       An array containing ids of each token being transferred (order and length must match _values array)\n@param _values    An array containing amounts of each token being transferred (order and length must match _ids array)\n@param _data      Additional data with no specified format\n@return           `bytes4(keccak256(\"onERC1155BatchReceived(address,address,uint256[],uint256[],bytes)\"))`",
            "id": 2867,
            "implemented": false,
            "kind": "function",
            "modifiers": [],
            "name": "onERC1155BatchReceived",
            "nodeType": "FunctionDefinition",
            "parameters": {
              "id": 2863,
              "nodeType": "ParameterList",
              "parameters": [
                {
                  "constant": false,
                  "id": 2852,
                  "name": "_operator",
                  "nodeType": "VariableDeclaration",
                  "scope": 2867,
                  "src": "2634:17:14",
                  "stateVariable": false,
                  "storageLocation": "default",
                  "typeDescriptions": {
                    "typeIdentifier": "t_address",
                    "typeString": "address"
                  },
                  "typeName": {
                    "id": 2851,
                    "name": "address",
                    "nodeType": "ElementaryTypeName",
                    "src": "2634:7:14",
                    "stateMutability": "nonpayable",
                    "typeDescriptions": {
                      "typeIdentifier": "t_address",
                      "typeString": "address"
                    }
                  },
                  "value": null,
                  "visibility": "internal"
                },
                {
                  "constant": false,
                  "id": 2854,
                  "name": "_from",
                  "nodeType": "VariableDeclaration",
                  "scope": 2867,
                  "src": "2653:13:14",
                  "stateVariable": false,
                  "storageLocation": "default",
                  "typeDescriptions": {
                    "typeIdentifier": "t_address",
                    "typeString": "address"
                  },
                  "typeName": {
                    "id": 2853,
                    "name": "address",
                    "nodeType": "ElementaryTypeName",
                    "src": "2653:7:14",
                    "stateMutability": "nonpayable",
                    "typeDescriptions": {
                      "typeIdentifier": "t_address",
                      "typeString": "address"
                    }
                  },
                  "value": null,
                  "visibility": "internal"
                },
                {
                  "constant": false,
                  "id": 2857,
                  "name": "_ids",
                  "nodeType": "VariableDeclaration",
                  "scope": 2867,
                  "src": "2668:23:14",
                  "stateVariable": false,
                  "storageLocation": "calldata",
                  "typeDescriptions": {
                    "typeIdentifier": "t_array$_t_uint256_$dyn_calldata_ptr",
                    "typeString": "uint256[]"
                  },
                  "typeName": {
                    "baseType": {
                      "id": 2855,
                      "name": "uint256",
                      "nodeType": "ElementaryTypeName",
                      "src": "2668:7:14",
                      "typeDescriptions": {
                        "typeIdentifier": "t_uint256",
                        "typeString": "uint256"
                      }
                    },
                    "id": 2856,
                    "length": null,
                    "nodeType": "ArrayTypeName",
                    "src": "2668:9:14",
                    "typeDescriptions": {
                      "typeIdentifier": "t_array$_t_uint256_$dyn_storage_ptr",
                      "typeString": "uint256[]"
                    }
                  },
                  "value": null,
                  "visibility": "internal"
                },
                {
                  "constant": false,
                  "id": 2860,
                  "name": "_values",
                  "nodeType": "VariableDeclaration",
                  "scope": 2867,
                  "src": "2693:26:14",
                  "stateVariable": false,
                  "storageLocation": "calldata",
                  "typeDescriptions": {
                    "typeIdentifier": "t_array$_t_uint256_$dyn_calldata_ptr",
                    "typeString": "uint256[]"
                  },
                  "typeName": {
                    "baseType": {
                      "id": 2858,
                      "name": "uint256",
                      "nodeType": "ElementaryTypeName",
                      "src": "2693:7:14",
                      "typeDescriptions": {
                        "typeIdentifier": "t_uint256",
                        "typeString": "uint256"
                      }
                    },
                    "id": 2859,
                    "length": null,
                    "nodeType": "ArrayTypeName",
                    "src": "2693:9:14",
                    "typeDescriptions": {
                      "typeIdentifier": "t_array$_t_uint256_$dyn_storage_ptr",
                      "typeString": "uint256[]"
                    }
                  },
                  "value": null,
                  "visibility": "internal"
                },
                {
                  "constant": false,
                  "id": 2862,
                  "name": "_data",
                  "nodeType": "VariableDeclaration",
                  "scope": 2867,
                  "src": "2721:20:14",
                  "stateVariable": false,
                  "storageLocation": "calldata",
                  "typeDescriptions": {
                    "typeIdentifier": "t_bytes_calldata_ptr",
                    "typeString": "bytes"
                  },
                  "typeName": {
                    "id": 2861,
                    "name": "bytes",
                    "nodeType": "ElementaryTypeName",
                    "src": "2721:5:14",
                    "typeDescriptions": {
                      "typeIdentifier": "t_bytes_storage_ptr",
                      "typeString": "bytes"
                    }
                  },
                  "value": null,
                  "visibility": "internal"
                }
              ],
              "src": "2633:109:14"
            },
            "returnParameters": {
              "id": 2866,
              "nodeType": "ParameterList",
              "parameters": [
                {
                  "constant": false,
                  "id": 2865,
                  "name": "",
                  "nodeType": "VariableDeclaration",
                  "scope": 2867,
                  "src": "2760:6:14",
                  "stateVariable": false,
                  "storageLocation": "default",
                  "typeDescriptions": {
                    "typeIdentifier": "t_bytes4",
                    "typeString": "bytes4"
                  },
                  "typeName": {
                    "id": 2864,
                    "name": "bytes4",
                    "nodeType": "ElementaryTypeName",
                    "src": "2760:6:14",
                    "typeDescriptions": {
                      "typeIdentifier": "t_bytes4",
                      "typeString": "bytes4"
                    }
                  },
                  "value": null,
                  "visibility": "internal"
                }
              ],
              "src": "2759:8:14"
            },
            "scope": 2868,
            "src": "2602:166:14",
            "stateMutability": "nonpayable",
            "superFunction": null,
            "visibility": "external"
          }
        ],
        "scope": 2869,
        "src": "100:2670:14"
      }
    ],
    "src": "0:2771:14"
  },
  "compiler": {
    "name": "solc",
    "version": "0.5.11+commit.c082d0b4.Emscripten.clang"
  },
  "networks": {},
  "schemaVersion": "3.0.16",
  "updatedAt": "2019-10-17T16:25:59.240Z",
  "devdoc": {
    "methods": {
      "onERC1155BatchReceived(address,address,uint256[],uint256[],bytes)": {
        "details": "An ERC1155-compliant smart contract MUST call this function on the token recipient contract, at the end of a `safeBatchTransferFrom` after the balances have been updated. This function MUST return `bytes4(keccak256(\"onERC1155BatchReceived(address,address,uint256[],uint256[],bytes)\"))` (i.e. 0xbc197c81) if it accepts the transfer(s). This function MUST revert if it rejects the transfer(s). Return of any other value than the prescribed keccak256 generated value MUST result in the transaction being reverted by the caller.",
        "params": {
          "_data": "Additional data with no specified format",
          "_from": "The address which previously owned the token",
          "_ids": "An array containing ids of each token being transferred (order and length must match _values array)",
          "_operator": "The address which initiated the batch transfer (i.e. msg.sender)",
          "_values": "An array containing amounts of each token being transferred (order and length must match _ids array)"
        },
        "return": "`bytes4(keccak256(\"onERC1155BatchReceived(address,address,uint256[],uint256[],bytes)\"))`"
      },
      "onERC1155Received(address,address,uint256,uint256,bytes)": {
        "details": "An ERC1155-compliant smart contract MUST call this function on the token recipient contract, at the end of a `safeTransferFrom` after the balance has been updated. This function MUST return `bytes4(keccak256(\"onERC1155Received(address,address,uint256,uint256,bytes)\"))` (i.e. 0xf23a6e61) if it accepts the transfer. This function MUST revert if it rejects the transfer. Return of any other value than the prescribed keccak256 generated value MUST result in the transaction being reverted by the caller.",
        "params": {
          "_data": "Additional data with no specified format",
          "_from": "The address which previously owned the token",
          "_id": "The ID of the token being transferred",
          "_operator": "The address which initiated the transfer (i.e. msg.sender)",
          "_value": "The amount of tokens being transferred"
        },
        "return": "`bytes4(keccak256(\"onERC1155Received(address,address,uint256,uint256,bytes)\"))`"
      }
    }
  },
  "userdoc": {
    "methods": {
      "onERC1155BatchReceived(address,address,uint256[],uint256[],bytes)": {
        "notice": "Handle the receipt of multiple ERC1155 token types."
      },
      "onERC1155Received(address,address,uint256,uint256,bytes)": {
        "notice": "Handle the receipt of a single ERC1155 token type."
      }
    },
    "notice": "Note: The ERC-165 identifier for this interface is 0x4e2312e0."
  }
}