{
  "contractName": "IRandomGenerator",
  "abi": [
    {
      "constant": false,
      "inputs": [],
      "name": "generateRandom",
      "outputs": [
        {
          "internalType": "bytes32",
          "name": "",
          "type": "bytes32"
        }
      ],
      "payable": true,
      "stateMutability": "payable",
      "type": "function"
    }
  ],
  "metadata": "{\"compiler\":{\"version\":\"0.5.11+commit.c082d0b4\"},\"language\":\"Solidity\",\"output\":{\"abi\":[{\"constant\":false,\"inputs\":[],\"name\":\"generateRandom\",\"outputs\":[{\"internalType\":\"bytes32\",\"name\":\"\",\"type\":\"bytes32\"}],\"payable\":true,\"stateMutability\":\"payable\",\"type\":\"function\"}],\"devdoc\":{\"details\":\"Decentracraftworld manager Controls minting process\",\"methods\":{}},\"userdoc\":{\"methods\":{}}},\"settings\":{\"compilationTarget\":{\"/mnt/c/Kiko/MyProjects/Blockchain/Decentraland/decentracraft-contracts/contracts/Utils/IRandomGenerator.sol\":\"IRandomGenerator\"},\"evmVersion\":\"petersburg\",\"libraries\":{},\"optimizer\":{\"enabled\":false,\"runs\":200},\"remappings\":[]},\"sources\":{\"/mnt/c/Kiko/MyProjects/Blockchain/Decentraland/decentracraft-contracts/contracts/Utils/IRNGReceiver.sol\":{\"keccak256\":\"0x0338ac9b24fc717e9cbee42c14e20672ebb15d7f875652759261f27e4bb5b061\",\"urls\":[\"bzz-raw://e0fe471ef495a4cfe9aa419e8c67e73168fb7485511f64281555cc707bfcd6ad\",\"dweb:/ipfs/QmbATnPk7vTzSH1vddLeMN8HwERA83RFW2RJxhPURMpr5H\"]},\"/mnt/c/Kiko/MyProjects/Blockchain/Decentraland/decentracraft-contracts/contracts/Utils/IRandomGenerator.sol\":{\"keccak256\":\"0x9a6364d562578126432d6713ad101128e92965b4b4478c0509464f7c86740c7c\",\"urls\":[\"bzz-raw://5d22df118a43b4ce142f4ebd015e29d77bcb2c826c9e08e8540f104f4fad0023\",\"dweb:/ipfs/QmdmxvS8mxXvpSzmKU5p7S5iAdSGgM5v8w4HCgT922rUUq\"]}},\"version\":1}",
  "bytecode": "0x",
  "deployedBytecode": "0x",
  "sourceMap": "",
  "deployedSourceMap": "",
  "source": "pragma solidity ^0.5.11;\n\nimport \"./IRNGReceiver.sol\";\n\n/**\n    @dev Decentracraftworld manager\n    Controls minting process\n*/\ninterface IRandomGenerator {\n\n    function generateRandom() external payable returns (bytes32);\n}\n",
  "sourcePath": "/mnt/c/Kiko/MyProjects/Blockchain/Decentraland/decentracraft-contracts/contracts/Utils/IRandomGenerator.sol",
  "ast": {
    "absolutePath": "/mnt/c/Kiko/MyProjects/Blockchain/Decentraland/decentracraft-contracts/contracts/Utils/IRandomGenerator.sol",
    "exportedSymbols": {
      "IRandomGenerator": [
        3974
      ]
    },
    "id": 3975,
    "nodeType": "SourceUnit",
    "nodes": [
      {
        "id": 3967,
        "literals": [
          "solidity",
          "^",
          "0.5",
          ".11"
        ],
        "nodeType": "PragmaDirective",
        "src": "0:24:23"
      },
      {
        "absolutePath": "/mnt/c/Kiko/MyProjects/Blockchain/Decentraland/decentracraft-contracts/contracts/Utils/IRNGReceiver.sol",
        "file": "./IRNGReceiver.sol",
        "id": 3968,
        "nodeType": "ImportDirective",
        "scope": 3975,
        "sourceUnit": 3966,
        "src": "26:28:23",
        "symbolAliases": [],
        "unitAlias": ""
      },
      {
        "baseContracts": [],
        "contractDependencies": [],
        "contractKind": "interface",
        "documentation": "@dev Decentracraftworld manager\nControls minting process",
        "fullyImplemented": false,
        "id": 3974,
        "linearizedBaseContracts": [
          3974
        ],
        "name": "IRandomGenerator",
        "nodeType": "ContractDefinition",
        "nodes": [
          {
            "body": null,
            "documentation": null,
            "id": 3973,
            "implemented": false,
            "kind": "function",
            "modifiers": [],
            "name": "generateRandom",
            "nodeType": "FunctionDefinition",
            "parameters": {
              "id": 3969,
              "nodeType": "ParameterList",
              "parameters": [],
              "src": "185:2:23"
            },
            "returnParameters": {
              "id": 3972,
              "nodeType": "ParameterList",
              "parameters": [
                {
                  "constant": false,
                  "id": 3971,
                  "name": "",
                  "nodeType": "VariableDeclaration",
                  "scope": 3973,
                  "src": "214:7:23",
                  "stateVariable": false,
                  "storageLocation": "default",
                  "typeDescriptions": {
                    "typeIdentifier": "t_bytes32",
                    "typeString": "bytes32"
                  },
                  "typeName": {
                    "id": 3970,
                    "name": "bytes32",
                    "nodeType": "ElementaryTypeName",
                    "src": "214:7:23",
                    "typeDescriptions": {
                      "typeIdentifier": "t_bytes32",
                      "typeString": "bytes32"
                    }
                  },
                  "value": null,
                  "visibility": "internal"
                }
              ],
              "src": "213:9:23"
            },
            "scope": 3974,
            "src": "162:61:23",
            "stateMutability": "payable",
            "superFunction": null,
            "visibility": "external"
          }
        ],
        "scope": 3975,
        "src": "128:97:23"
      }
    ],
    "src": "0:226:23"
  },
  "legacyAST": {
    "absolutePath": "/mnt/c/Kiko/MyProjects/Blockchain/Decentraland/decentracraft-contracts/contracts/Utils/IRandomGenerator.sol",
    "exportedSymbols": {
      "IRandomGenerator": [
        3974
      ]
    },
    "id": 3975,
    "nodeType": "SourceUnit",
    "nodes": [
      {
        "id": 3967,
        "literals": [
          "solidity",
          "^",
          "0.5",
          ".11"
        ],
        "nodeType": "PragmaDirective",
        "src": "0:24:23"
      },
      {
        "absolutePath": "/mnt/c/Kiko/MyProjects/Blockchain/Decentraland/decentracraft-contracts/contracts/Utils/IRNGReceiver.sol",
        "file": "./IRNGReceiver.sol",
        "id": 3968,
        "nodeType": "ImportDirective",
        "scope": 3975,
        "sourceUnit": 3966,
        "src": "26:28:23",
        "symbolAliases": [],
        "unitAlias": ""
      },
      {
        "baseContracts": [],
        "contractDependencies": [],
        "contractKind": "interface",
        "documentation": "@dev Decentracraftworld manager\nControls minting process",
        "fullyImplemented": false,
        "id": 3974,
        "linearizedBaseContracts": [
          3974
        ],
        "name": "IRandomGenerator",
        "nodeType": "ContractDefinition",
        "nodes": [
          {
            "body": null,
            "documentation": null,
            "id": 3973,
            "implemented": false,
            "kind": "function",
            "modifiers": [],
            "name": "generateRandom",
            "nodeType": "FunctionDefinition",
            "parameters": {
              "id": 3969,
              "nodeType": "ParameterList",
              "parameters": [],
              "src": "185:2:23"
            },
            "returnParameters": {
              "id": 3972,
              "nodeType": "ParameterList",
              "parameters": [
                {
                  "constant": false,
                  "id": 3971,
                  "name": "",
                  "nodeType": "VariableDeclaration",
                  "scope": 3973,
                  "src": "214:7:23",
                  "stateVariable": false,
                  "storageLocation": "default",
                  "typeDescriptions": {
                    "typeIdentifier": "t_bytes32",
                    "typeString": "bytes32"
                  },
                  "typeName": {
                    "id": 3970,
                    "name": "bytes32",
                    "nodeType": "ElementaryTypeName",
                    "src": "214:7:23",
                    "typeDescriptions": {
                      "typeIdentifier": "t_bytes32",
                      "typeString": "bytes32"
                    }
                  },
                  "value": null,
                  "visibility": "internal"
                }
              ],
              "src": "213:9:23"
            },
            "scope": 3974,
            "src": "162:61:23",
            "stateMutability": "payable",
            "superFunction": null,
            "visibility": "external"
          }
        ],
        "scope": 3975,
        "src": "128:97:23"
      }
    ],
    "src": "0:226:23"
  },
  "compiler": {
    "name": "solc",
    "version": "0.5.11+commit.c082d0b4.Emscripten.clang"
  },
  "networks": {},
  "schemaVersion": "3.0.16",
  "updatedAt": "2019-12-09T00:59:01.250Z",
  "devdoc": {
    "details": "Decentracraftworld manager Controls minting process",
    "methods": {}
  },
  "userdoc": {
    "methods": {}
  }
}